%!PS-Adobe-2.0 EPSF-2.0
%%Title: 6511log.eps
%%Creator: gnuplot 5.0 patchlevel 3
%%CreationDate: Tue Jun  6 17:35:06 2017
%%DocumentFonts: (atend)
%%BoundingBox: 50 50 410 302
%%EndComments
%%BeginProlog
/gnudict 256 dict def
gnudict begin
%
% The following true/false flags may be edited by hand if desired.
% The unit line width and grayscale image gamma correction may also be changed.
%
/Color true def
/Blacktext false def
/Solid false def
/Dashlength 1 def
/Landscape false def
/Level1 false def
/Level3 false def
/Rounded false def
/ClipToBoundingBox false def
/SuppressPDFMark false def
/TransparentPatterns false def
/gnulinewidth 5.000 def
/userlinewidth gnulinewidth def
/Gamma 1.0 def
/BackgroundColor {-1.000 -1.000 -1.000} def
%
/vshift -46 def
/dl1 {
  10.0 Dashlength userlinewidth gnulinewidth div mul mul mul
  Rounded { currentlinewidth 0.75 mul sub dup 0 le { pop 0.01 } if } if
} def
/dl2 {
  10.0 Dashlength userlinewidth gnulinewidth div mul mul mul
  Rounded { currentlinewidth 0.75 mul add } if
} def
/hpt_ 31.5 def
/vpt_ 31.5 def
/hpt hpt_ def
/vpt vpt_ def
/doclip {
  ClipToBoundingBox {
    newpath 50 50 moveto 410 50 lineto 410 302 lineto 50 302 lineto closepath
    clip
  } if
} def
%
% Gnuplot Prolog Version 5.1 (Oct 2015)
%
%/SuppressPDFMark true def
%
/M {moveto} bind def
/L {lineto} bind def
/R {rmoveto} bind def
/V {rlineto} bind def
/N {newpath moveto} bind def
/Z {closepath} bind def
/C {setrgbcolor} bind def
/f {rlineto fill} bind def
/g {setgray} bind def
/Gshow {show} def   % May be redefined later in the file to support UTF-8
/vpt2 vpt 2 mul def
/hpt2 hpt 2 mul def
/Lshow {currentpoint stroke M 0 vshift R 
	Blacktext {gsave 0 setgray textshow grestore} {textshow} ifelse} def
/Rshow {currentpoint stroke M dup stringwidth pop neg vshift R
	Blacktext {gsave 0 setgray textshow grestore} {textshow} ifelse} def
/Cshow {currentpoint stroke M dup stringwidth pop -2 div vshift R 
	Blacktext {gsave 0 setgray textshow grestore} {textshow} ifelse} def
/UP {dup vpt_ mul /vpt exch def hpt_ mul /hpt exch def
  /hpt2 hpt 2 mul def /vpt2 vpt 2 mul def} def
/DL {Color {setrgbcolor Solid {pop []} if 0 setdash}
 {pop pop pop 0 setgray Solid {pop []} if 0 setdash} ifelse} def
/BL {stroke userlinewidth 2 mul setlinewidth
	Rounded {1 setlinejoin 1 setlinecap} if} def
/AL {stroke userlinewidth 2 div setlinewidth
	Rounded {1 setlinejoin 1 setlinecap} if} def
/UL {dup gnulinewidth mul /userlinewidth exch def
	dup 1 lt {pop 1} if 10 mul /udl exch def} def
/PL {stroke userlinewidth setlinewidth
	Rounded {1 setlinejoin 1 setlinecap} if} def
3.8 setmiterlimit
% Classic Line colors (version 5.0)
/LCw {1 1 1} def
/LCb {0 0 0} def
/LCa {0 0 0} def
/LC0 {1 0 0} def
/LC1 {0 1 0} def
/LC2 {0 0 1} def
/LC3 {1 0 1} def
/LC4 {0 1 1} def
/LC5 {1 1 0} def
/LC6 {0 0 0} def
/LC7 {1 0.3 0} def
/LC8 {0.5 0.5 0.5} def
% Default dash patterns (version 5.0)
/LTB {BL [] LCb DL} def
/LTw {PL [] 1 setgray} def
/LTb {PL [] LCb DL} def
/LTa {AL [1 udl mul 2 udl mul] 0 setdash LCa setrgbcolor} def
/LT0 {PL [] LC0 DL} def
/LT1 {PL [2 dl1 3 dl2] LC1 DL} def
/LT2 {PL [1 dl1 1.5 dl2] LC2 DL} def
/LT3 {PL [6 dl1 2 dl2 1 dl1 2 dl2] LC3 DL} def
/LT4 {PL [1 dl1 2 dl2 6 dl1 2 dl2 1 dl1 2 dl2] LC4 DL} def
/LT5 {PL [4 dl1 2 dl2] LC5 DL} def
/LT6 {PL [1.5 dl1 1.5 dl2 1.5 dl1 1.5 dl2 1.5 dl1 6 dl2] LC6 DL} def
/LT7 {PL [3 dl1 3 dl2 1 dl1 3 dl2] LC7 DL} def
/LT8 {PL [2 dl1 2 dl2 2 dl1 6 dl2] LC8 DL} def
/SL {[] 0 setdash} def
/Pnt {stroke [] 0 setdash gsave 1 setlinecap M 0 0 V stroke grestore} def
/Dia {stroke [] 0 setdash 2 copy vpt add M
  hpt neg vpt neg V hpt vpt neg V
  hpt vpt V hpt neg vpt V closepath stroke
  Pnt} def
/Pls {stroke [] 0 setdash vpt sub M 0 vpt2 V
  currentpoint stroke M
  hpt neg vpt neg R hpt2 0 V stroke
 } def
/Box {stroke [] 0 setdash 2 copy exch hpt sub exch vpt add M
  0 vpt2 neg V hpt2 0 V 0 vpt2 V
  hpt2 neg 0 V closepath stroke
  Pnt} def
/Crs {stroke [] 0 setdash exch hpt sub exch vpt add M
  hpt2 vpt2 neg V currentpoint stroke M
  hpt2 neg 0 R hpt2 vpt2 V stroke} def
/TriU {stroke [] 0 setdash 2 copy vpt 1.12 mul add M
  hpt neg vpt -1.62 mul V
  hpt 2 mul 0 V
  hpt neg vpt 1.62 mul V closepath stroke
  Pnt} def
/Star {2 copy Pls Crs} def
/BoxF {stroke [] 0 setdash exch hpt sub exch vpt add M
  0 vpt2 neg V hpt2 0 V 0 vpt2 V
  hpt2 neg 0 V closepath fill} def
/TriUF {stroke [] 0 setdash vpt 1.12 mul add M
  hpt neg vpt -1.62 mul V
  hpt 2 mul 0 V
  hpt neg vpt 1.62 mul V closepath fill} def
/TriD {stroke [] 0 setdash 2 copy vpt 1.12 mul sub M
  hpt neg vpt 1.62 mul V
  hpt 2 mul 0 V
  hpt neg vpt -1.62 mul V closepath stroke
  Pnt} def
/TriDF {stroke [] 0 setdash vpt 1.12 mul sub M
  hpt neg vpt 1.62 mul V
  hpt 2 mul 0 V
  hpt neg vpt -1.62 mul V closepath fill} def
/DiaF {stroke [] 0 setdash vpt add M
  hpt neg vpt neg V hpt vpt neg V
  hpt vpt V hpt neg vpt V closepath fill} def
/Pent {stroke [] 0 setdash 2 copy gsave
  translate 0 hpt M 4 {72 rotate 0 hpt L} repeat
  closepath stroke grestore Pnt} def
/PentF {stroke [] 0 setdash gsave
  translate 0 hpt M 4 {72 rotate 0 hpt L} repeat
  closepath fill grestore} def
/Circle {stroke [] 0 setdash 2 copy
  hpt 0 360 arc stroke Pnt} def
/CircleF {stroke [] 0 setdash hpt 0 360 arc fill} def
/C0 {BL [] 0 setdash 2 copy moveto vpt 90 450 arc} bind def
/C1 {BL [] 0 setdash 2 copy moveto
	2 copy vpt 0 90 arc closepath fill
	vpt 0 360 arc closepath} bind def
/C2 {BL [] 0 setdash 2 copy moveto
	2 copy vpt 90 180 arc closepath fill
	vpt 0 360 arc closepath} bind def
/C3 {BL [] 0 setdash 2 copy moveto
	2 copy vpt 0 180 arc closepath fill
	vpt 0 360 arc closepath} bind def
/C4 {BL [] 0 setdash 2 copy moveto
	2 copy vpt 180 270 arc closepath fill
	vpt 0 360 arc closepath} bind def
/C5 {BL [] 0 setdash 2 copy moveto
	2 copy vpt 0 90 arc
	2 copy moveto
	2 copy vpt 180 270 arc closepath fill
	vpt 0 360 arc} bind def
/C6 {BL [] 0 setdash 2 copy moveto
	2 copy vpt 90 270 arc closepath fill
	vpt 0 360 arc closepath} bind def
/C7 {BL [] 0 setdash 2 copy moveto
	2 copy vpt 0 270 arc closepath fill
	vpt 0 360 arc closepath} bind def
/C8 {BL [] 0 setdash 2 copy moveto
	2 copy vpt 270 360 arc closepath fill
	vpt 0 360 arc closepath} bind def
/C9 {BL [] 0 setdash 2 copy moveto
	2 copy vpt 270 450 arc closepath fill
	vpt 0 360 arc closepath} bind def
/C10 {BL [] 0 setdash 2 copy 2 copy moveto vpt 270 360 arc closepath fill
	2 copy moveto
	2 copy vpt 90 180 arc closepath fill
	vpt 0 360 arc closepath} bind def
/C11 {BL [] 0 setdash 2 copy moveto
	2 copy vpt 0 180 arc closepath fill
	2 copy moveto
	2 copy vpt 270 360 arc closepath fill
	vpt 0 360 arc closepath} bind def
/C12 {BL [] 0 setdash 2 copy moveto
	2 copy vpt 180 360 arc closepath fill
	vpt 0 360 arc closepath} bind def
/C13 {BL [] 0 setdash 2 copy moveto
	2 copy vpt 0 90 arc closepath fill
	2 copy moveto
	2 copy vpt 180 360 arc closepath fill
	vpt 0 360 arc closepath} bind def
/C14 {BL [] 0 setdash 2 copy moveto
	2 copy vpt 90 360 arc closepath fill
	vpt 0 360 arc} bind def
/C15 {BL [] 0 setdash 2 copy vpt 0 360 arc closepath fill
	vpt 0 360 arc closepath} bind def
/Rec {newpath 4 2 roll moveto 1 index 0 rlineto 0 exch rlineto
	neg 0 rlineto closepath} bind def
/Square {dup Rec} bind def
/Bsquare {vpt sub exch vpt sub exch vpt2 Square} bind def
/S0 {BL [] 0 setdash 2 copy moveto 0 vpt rlineto BL Bsquare} bind def
/S1 {BL [] 0 setdash 2 copy vpt Square fill Bsquare} bind def
/S2 {BL [] 0 setdash 2 copy exch vpt sub exch vpt Square fill Bsquare} bind def
/S3 {BL [] 0 setdash 2 copy exch vpt sub exch vpt2 vpt Rec fill Bsquare} bind def
/S4 {BL [] 0 setdash 2 copy exch vpt sub exch vpt sub vpt Square fill Bsquare} bind def
/S5 {BL [] 0 setdash 2 copy 2 copy vpt Square fill
	exch vpt sub exch vpt sub vpt Square fill Bsquare} bind def
/S6 {BL [] 0 setdash 2 copy exch vpt sub exch vpt sub vpt vpt2 Rec fill Bsquare} bind def
/S7 {BL [] 0 setdash 2 copy exch vpt sub exch vpt sub vpt vpt2 Rec fill
	2 copy vpt Square fill Bsquare} bind def
/S8 {BL [] 0 setdash 2 copy vpt sub vpt Square fill Bsquare} bind def
/S9 {BL [] 0 setdash 2 copy vpt sub vpt vpt2 Rec fill Bsquare} bind def
/S10 {BL [] 0 setdash 2 copy vpt sub vpt Square fill 2 copy exch vpt sub exch vpt Square fill
	Bsquare} bind def
/S11 {BL [] 0 setdash 2 copy vpt sub vpt Square fill 2 copy exch vpt sub exch vpt2 vpt Rec fill
	Bsquare} bind def
/S12 {BL [] 0 setdash 2 copy exch vpt sub exch vpt sub vpt2 vpt Rec fill Bsquare} bind def
/S13 {BL [] 0 setdash 2 copy exch vpt sub exch vpt sub vpt2 vpt Rec fill
	2 copy vpt Square fill Bsquare} bind def
/S14 {BL [] 0 setdash 2 copy exch vpt sub exch vpt sub vpt2 vpt Rec fill
	2 copy exch vpt sub exch vpt Square fill Bsquare} bind def
/S15 {BL [] 0 setdash 2 copy Bsquare fill Bsquare} bind def
/D0 {gsave translate 45 rotate 0 0 S0 stroke grestore} bind def
/D1 {gsave translate 45 rotate 0 0 S1 stroke grestore} bind def
/D2 {gsave translate 45 rotate 0 0 S2 stroke grestore} bind def
/D3 {gsave translate 45 rotate 0 0 S3 stroke grestore} bind def
/D4 {gsave translate 45 rotate 0 0 S4 stroke grestore} bind def
/D5 {gsave translate 45 rotate 0 0 S5 stroke grestore} bind def
/D6 {gsave translate 45 rotate 0 0 S6 stroke grestore} bind def
/D7 {gsave translate 45 rotate 0 0 S7 stroke grestore} bind def
/D8 {gsave translate 45 rotate 0 0 S8 stroke grestore} bind def
/D9 {gsave translate 45 rotate 0 0 S9 stroke grestore} bind def
/D10 {gsave translate 45 rotate 0 0 S10 stroke grestore} bind def
/D11 {gsave translate 45 rotate 0 0 S11 stroke grestore} bind def
/D12 {gsave translate 45 rotate 0 0 S12 stroke grestore} bind def
/D13 {gsave translate 45 rotate 0 0 S13 stroke grestore} bind def
/D14 {gsave translate 45 rotate 0 0 S14 stroke grestore} bind def
/D15 {gsave translate 45 rotate 0 0 S15 stroke grestore} bind def
/DiaE {stroke [] 0 setdash vpt add M
  hpt neg vpt neg V hpt vpt neg V
  hpt vpt V hpt neg vpt V closepath stroke} def
/BoxE {stroke [] 0 setdash exch hpt sub exch vpt add M
  0 vpt2 neg V hpt2 0 V 0 vpt2 V
  hpt2 neg 0 V closepath stroke} def
/TriUE {stroke [] 0 setdash vpt 1.12 mul add M
  hpt neg vpt -1.62 mul V
  hpt 2 mul 0 V
  hpt neg vpt 1.62 mul V closepath stroke} def
/TriDE {stroke [] 0 setdash vpt 1.12 mul sub M
  hpt neg vpt 1.62 mul V
  hpt 2 mul 0 V
  hpt neg vpt -1.62 mul V closepath stroke} def
/PentE {stroke [] 0 setdash gsave
  translate 0 hpt M 4 {72 rotate 0 hpt L} repeat
  closepath stroke grestore} def
/CircE {stroke [] 0 setdash 
  hpt 0 360 arc stroke} def
/Opaque {gsave closepath 1 setgray fill grestore 0 setgray closepath} def
/DiaW {stroke [] 0 setdash vpt add M
  hpt neg vpt neg V hpt vpt neg V
  hpt vpt V hpt neg vpt V Opaque stroke} def
/BoxW {stroke [] 0 setdash exch hpt sub exch vpt add M
  0 vpt2 neg V hpt2 0 V 0 vpt2 V
  hpt2 neg 0 V Opaque stroke} def
/TriUW {stroke [] 0 setdash vpt 1.12 mul add M
  hpt neg vpt -1.62 mul V
  hpt 2 mul 0 V
  hpt neg vpt 1.62 mul V Opaque stroke} def
/TriDW {stroke [] 0 setdash vpt 1.12 mul sub M
  hpt neg vpt 1.62 mul V
  hpt 2 mul 0 V
  hpt neg vpt -1.62 mul V Opaque stroke} def
/PentW {stroke [] 0 setdash gsave
  translate 0 hpt M 4 {72 rotate 0 hpt L} repeat
  Opaque stroke grestore} def
/CircW {stroke [] 0 setdash 
  hpt 0 360 arc Opaque stroke} def
/BoxFill {gsave Rec 1 setgray fill grestore} def
/Density {
  /Fillden exch def
  currentrgbcolor
  /ColB exch def /ColG exch def /ColR exch def
  /ColR ColR Fillden mul Fillden sub 1 add def
  /ColG ColG Fillden mul Fillden sub 1 add def
  /ColB ColB Fillden mul Fillden sub 1 add def
  ColR ColG ColB setrgbcolor} def
/BoxColFill {gsave Rec PolyFill} def
/PolyFill {gsave Density fill grestore grestore} def
/h {rlineto rlineto rlineto gsave closepath fill grestore} bind def
%
% PostScript Level 1 Pattern Fill routine for rectangles
% Usage: x y w h s a XX PatternFill
%	x,y = lower left corner of box to be filled
%	w,h = width and height of box
%	  a = angle in degrees between lines and x-axis
%	 XX = 0/1 for no/yes cross-hatch
%
/PatternFill {gsave /PFa [ 9 2 roll ] def
  PFa 0 get PFa 2 get 2 div add PFa 1 get PFa 3 get 2 div add translate
  PFa 2 get -2 div PFa 3 get -2 div PFa 2 get PFa 3 get Rec
  TransparentPatterns {} {gsave 1 setgray fill grestore} ifelse
  clip
  currentlinewidth 0.5 mul setlinewidth
  /PFs PFa 2 get dup mul PFa 3 get dup mul add sqrt def
  0 0 M PFa 5 get rotate PFs -2 div dup translate
  0 1 PFs PFa 4 get div 1 add floor cvi
	{PFa 4 get mul 0 M 0 PFs V} for
  0 PFa 6 get ne {
	0 1 PFs PFa 4 get div 1 add floor cvi
	{PFa 4 get mul 0 2 1 roll M PFs 0 V} for
 } if
  stroke grestore} def
%
/languagelevel where
 {pop languagelevel} {1} ifelse
dup 2 lt
	{/InterpretLevel1 true def
	 /InterpretLevel3 false def}
	{/InterpretLevel1 Level1 def
	 2 gt
	    {/InterpretLevel3 Level3 def}
	    {/InterpretLevel3 false def}
	 ifelse }
 ifelse
%
% PostScript level 2 pattern fill definitions
%
/Level2PatternFill {
/Tile8x8 {/PaintType 2 /PatternType 1 /TilingType 1 /BBox [0 0 8 8] /XStep 8 /YStep 8}
	bind def
/KeepColor {currentrgbcolor [/Pattern /DeviceRGB] setcolorspace} bind def
<< Tile8x8
 /PaintProc {0.5 setlinewidth pop 0 0 M 8 8 L 0 8 M 8 0 L stroke} 
>> matrix makepattern
/Pat1 exch def
<< Tile8x8
 /PaintProc {0.5 setlinewidth pop 0 0 M 8 8 L 0 8 M 8 0 L stroke
	0 4 M 4 8 L 8 4 L 4 0 L 0 4 L stroke}
>> matrix makepattern
/Pat2 exch def
<< Tile8x8
 /PaintProc {0.5 setlinewidth pop 0 0 M 0 8 L
	8 8 L 8 0 L 0 0 L fill}
>> matrix makepattern
/Pat3 exch def
<< Tile8x8
 /PaintProc {0.5 setlinewidth pop -4 8 M 8 -4 L
	0 12 M 12 0 L stroke}
>> matrix makepattern
/Pat4 exch def
<< Tile8x8
 /PaintProc {0.5 setlinewidth pop -4 0 M 8 12 L
	0 -4 M 12 8 L stroke}
>> matrix makepattern
/Pat5 exch def
<< Tile8x8
 /PaintProc {0.5 setlinewidth pop -2 8 M 4 -4 L
	0 12 M 8 -4 L 4 12 M 10 0 L stroke}
>> matrix makepattern
/Pat6 exch def
<< Tile8x8
 /PaintProc {0.5 setlinewidth pop -2 0 M 4 12 L
	0 -4 M 8 12 L 4 -4 M 10 8 L stroke}
>> matrix makepattern
/Pat7 exch def
<< Tile8x8
 /PaintProc {0.5 setlinewidth pop 8 -2 M -4 4 L
	12 0 M -4 8 L 12 4 M 0 10 L stroke}
>> matrix makepattern
/Pat8 exch def
<< Tile8x8
 /PaintProc {0.5 setlinewidth pop 0 -2 M 12 4 L
	-4 0 M 12 8 L -4 4 M 8 10 L stroke}
>> matrix makepattern
/Pat9 exch def
/Pattern1 {PatternBgnd KeepColor Pat1 setpattern} bind def
/Pattern2 {PatternBgnd KeepColor Pat2 setpattern} bind def
/Pattern3 {PatternBgnd KeepColor Pat3 setpattern} bind def
/Pattern4 {PatternBgnd KeepColor Landscape {Pat5} {Pat4} ifelse setpattern} bind def
/Pattern5 {PatternBgnd KeepColor Landscape {Pat4} {Pat5} ifelse setpattern} bind def
/Pattern6 {PatternBgnd KeepColor Landscape {Pat9} {Pat6} ifelse setpattern} bind def
/Pattern7 {PatternBgnd KeepColor Landscape {Pat8} {Pat7} ifelse setpattern} bind def
} def
%
%
%End of PostScript Level 2 code
%
/PatternBgnd {
  TransparentPatterns {} {gsave 1 setgray fill grestore} ifelse
} def
%
% Substitute for Level 2 pattern fill codes with
% grayscale if Level 2 support is not selected.
%
/Level1PatternFill {
/Pattern1 {0.250 Density} bind def
/Pattern2 {0.500 Density} bind def
/Pattern3 {0.750 Density} bind def
/Pattern4 {0.125 Density} bind def
/Pattern5 {0.375 Density} bind def
/Pattern6 {0.625 Density} bind def
/Pattern7 {0.875 Density} bind def
} def
%
% Now test for support of Level 2 code
%
Level1 {Level1PatternFill} {Level2PatternFill} ifelse
%
/Symbol-Oblique /Symbol findfont [1 0 .167 1 0 0] makefont
dup length dict begin {1 index /FID eq {pop pop} {def} ifelse} forall
currentdict end definefont pop
%
/MFshow {
   { dup 5 get 3 ge
     { 5 get 3 eq {gsave} {grestore} ifelse }
     {dup dup 0 get findfont exch 1 get scalefont setfont
     [ currentpoint ] exch dup 2 get 0 exch R dup 5 get 2 ne {dup dup 6
     get exch 4 get {textshow} {stringwidth pop 0 R} ifelse }if dup 5 get 0 eq
     {dup 3 get {2 get neg 0 exch R pop} {pop aload pop M} ifelse} {dup 5
     get 1 eq {dup 2 get exch dup 3 get exch 6 get stringwidth pop -2 div
     dup 0 R} {dup 6 get stringwidth pop -2 div 0 R 6 get
     textshow 2 index {aload pop M neg 3 -1 roll neg R pop pop} {pop pop pop
     pop aload pop M} ifelse }ifelse }ifelse }
     ifelse }
   forall} def
/Gswidth {dup type /stringtype eq {stringwidth} {pop (n) stringwidth} ifelse} def
/MFwidth {0 exch { dup 5 get 3 ge { 5 get 3 eq { 0 } { pop } ifelse }
 {dup 3 get{dup dup 0 get findfont exch 1 get scalefont setfont
     6 get Gswidth pop add} {pop} ifelse} ifelse} forall} def
/MLshow { currentpoint stroke M
  0 exch R
  Blacktext {gsave 0 setgray MFshow grestore} {MFshow} ifelse } bind def
/MRshow { currentpoint stroke M
  exch dup MFwidth neg 3 -1 roll R
  Blacktext {gsave 0 setgray MFshow grestore} {MFshow} ifelse } bind def
/MCshow { currentpoint stroke M
  exch dup MFwidth -2 div 3 -1 roll R
  Blacktext {gsave 0 setgray MFshow grestore} {MFshow} ifelse } bind def
/XYsave    { [( ) 1 2 true false 3 ()] } bind def
/XYrestore { [( ) 1 2 true false 4 ()] } bind def
Level1 SuppressPDFMark or 
{} {
/SDict 10 dict def
systemdict /pdfmark known not {
  userdict /pdfmark systemdict /cleartomark get put
} if
SDict begin [
  /Title (6511log.eps)
  /Subject (gnuplot plot)
  /Creator (gnuplot 5.0 patchlevel 3)
  /Author (kazuma)
%  /Producer (gnuplot)
%  /Keywords ()
  /CreationDate (Tue Jun  6 17:35:06 2017)
  /DOCINFO pdfmark
end
} ifelse
%
% Support for boxed text - Ethan A Merritt May 2005
%
/InitTextBox { userdict /TBy2 3 -1 roll put userdict /TBx2 3 -1 roll put
           userdict /TBy1 3 -1 roll put userdict /TBx1 3 -1 roll put
	   /Boxing true def } def
/ExtendTextBox { Boxing
    { gsave dup false charpath pathbbox
      dup TBy2 gt {userdict /TBy2 3 -1 roll put} {pop} ifelse
      dup TBx2 gt {userdict /TBx2 3 -1 roll put} {pop} ifelse
      dup TBy1 lt {userdict /TBy1 3 -1 roll put} {pop} ifelse
      dup TBx1 lt {userdict /TBx1 3 -1 roll put} {pop} ifelse
      grestore } if } def
/PopTextBox { newpath TBx1 TBxmargin sub TBy1 TBymargin sub M
               TBx1 TBxmargin sub TBy2 TBymargin add L
	       TBx2 TBxmargin add TBy2 TBymargin add L
	       TBx2 TBxmargin add TBy1 TBymargin sub L closepath } def
/DrawTextBox { PopTextBox stroke /Boxing false def} def
/FillTextBox { gsave PopTextBox 1 1 1 setrgbcolor fill grestore /Boxing false def} def
0 0 0 0 InitTextBox
/TBxmargin 20 def
/TBymargin 20 def
/Boxing false def
/textshow { ExtendTextBox Gshow } def
%
% redundant definitions for compatibility with prologue.ps older than 5.0.2
/LTB {BL [] LCb DL} def
/LTb {PL [] LCb DL} def
end
%%EndProlog
%%Page: 1 1
gnudict begin
gsave
doclip
50 50 translate
0.050 0.050 scale
0 setgray
newpath
(Helvetica) findfont 140 scalefont setfont
BackgroundColor 0 lt 3 1 roll 0 lt exch 0 lt or or not {BackgroundColor C 1.000 0 0 7200.00 5040.00 BoxColFill} if
1.000 UL
LTb
LCb setrgbcolor
938 448 M
63 0 V
5946 0 R
-63 0 V
stroke
854 448 M
[ [(Helvetica) 140.0 0.0 true true 0 ( 1)]
] -46.7 MRshow
1.000 UL
LTb
LCb setrgbcolor
938 596 M
31 0 V
5978 0 R
-31 0 V
938 792 M
31 0 V
5978 0 R
-31 0 V
938 892 M
31 0 V
5978 0 R
-31 0 V
938 939 M
63 0 V
5946 0 R
-63 0 V
stroke
854 939 M
[ [(Helvetica) 140.0 0.0 true true 0 ( 10)]
] -46.7 MRshow
1.000 UL
LTb
LCb setrgbcolor
938 1087 M
31 0 V
5978 0 R
-31 0 V
938 1283 M
31 0 V
5978 0 R
-31 0 V
938 1383 M
31 0 V
5978 0 R
-31 0 V
938 1431 M
63 0 V
5946 0 R
-63 0 V
stroke
854 1431 M
[ [(Helvetica) 140.0 0.0 true true 0 ( 100)]
] -46.7 MRshow
1.000 UL
LTb
LCb setrgbcolor
938 1579 M
31 0 V
5978 0 R
-31 0 V
938 1774 M
31 0 V
5978 0 R
-31 0 V
938 1875 M
31 0 V
5978 0 R
-31 0 V
938 1922 M
63 0 V
5946 0 R
-63 0 V
stroke
854 1922 M
[ [(Helvetica) 140.0 0.0 true true 0 ( 1000)]
] -46.7 MRshow
1.000 UL
LTb
LCb setrgbcolor
938 2070 M
31 0 V
5978 0 R
-31 0 V
938 2266 M
31 0 V
5978 0 R
-31 0 V
938 2366 M
31 0 V
5978 0 R
-31 0 V
938 2414 M
63 0 V
5946 0 R
-63 0 V
stroke
854 2414 M
[ [(Helvetica) 140.0 0.0 true true 0 ( 10000)]
] -46.7 MRshow
1.000 UL
LTb
LCb setrgbcolor
938 2562 M
31 0 V
5978 0 R
-31 0 V
938 2757 M
31 0 V
5978 0 R
-31 0 V
938 2858 M
31 0 V
5978 0 R
-31 0 V
938 2905 M
63 0 V
5946 0 R
-63 0 V
stroke
854 2905 M
[ [(Helvetica) 140.0 0.0 true true 0 ( 100000)]
] -46.7 MRshow
1.000 UL
LTb
LCb setrgbcolor
938 3053 M
31 0 V
5978 0 R
-31 0 V
938 3249 M
31 0 V
5978 0 R
-31 0 V
938 3349 M
31 0 V
5978 0 R
-31 0 V
938 3397 M
63 0 V
5946 0 R
-63 0 V
stroke
854 3397 M
[ [(Helvetica) 140.0 0.0 true true 0 ( 1x10)]
[(Helvetica) 112.0 70.0 true true 0 (6)]
] -60.7 MRshow
1.000 UL
LTb
LCb setrgbcolor
938 3545 M
31 0 V
5978 0 R
-31 0 V
938 3740 M
31 0 V
5978 0 R
-31 0 V
938 3840 M
31 0 V
5978 0 R
-31 0 V
938 3888 M
63 0 V
5946 0 R
-63 0 V
stroke
854 3888 M
[ [(Helvetica) 140.0 0.0 true true 0 ( 1x10)]
[(Helvetica) 112.0 70.0 true true 0 (7)]
] -60.7 MRshow
1.000 UL
LTb
LCb setrgbcolor
938 4036 M
31 0 V
5978 0 R
-31 0 V
938 4232 M
31 0 V
5978 0 R
-31 0 V
938 4332 M
31 0 V
5978 0 R
-31 0 V
938 4380 M
63 0 V
5946 0 R
-63 0 V
stroke
854 4380 M
[ [(Helvetica) 140.0 0.0 true true 0 ( 1x10)]
[(Helvetica) 112.0 70.0 true true 0 (8)]
] -60.7 MRshow
1.000 UL
LTb
LCb setrgbcolor
938 4527 M
31 0 V
5978 0 R
-31 0 V
938 4723 M
31 0 V
5978 0 R
-31 0 V
938 4823 M
31 0 V
5978 0 R
-31 0 V
938 4871 M
63 0 V
5946 0 R
-63 0 V
stroke
854 4871 M
[ [(Helvetica) 140.0 0.0 true true 0 ( 1x10)]
[(Helvetica) 112.0 70.0 true true 0 (9)]
] -60.7 MRshow
1.000 UL
LTb
LCb setrgbcolor
938 448 M
0 63 V
0 4360 R
0 -63 V
stroke
938 308 M
[ [(Helvetica) 140.0 0.0 true true 0 ( 0)]
] -46.7 MCshow
1.000 UL
LTb
LCb setrgbcolor
1940 448 M
0 63 V
0 4360 R
0 -63 V
stroke
1940 308 M
[ [(Helvetica) 140.0 0.0 true true 0 ( 5)]
] -46.7 MCshow
1.000 UL
LTb
LCb setrgbcolor
2941 448 M
0 63 V
0 4360 R
0 -63 V
stroke
2941 308 M
[ [(Helvetica) 140.0 0.0 true true 0 ( 10)]
] -46.7 MCshow
1.000 UL
LTb
LCb setrgbcolor
3943 448 M
0 63 V
0 4360 R
0 -63 V
stroke
3943 308 M
[ [(Helvetica) 140.0 0.0 true true 0 ( 15)]
] -46.7 MCshow
1.000 UL
LTb
LCb setrgbcolor
4944 448 M
0 63 V
0 4360 R
0 -63 V
stroke
4944 308 M
[ [(Helvetica) 140.0 0.0 true true 0 ( 20)]
] -46.7 MCshow
1.000 UL
LTb
LCb setrgbcolor
5946 448 M
0 63 V
0 4360 R
0 -63 V
stroke
5946 308 M
[ [(Helvetica) 140.0 0.0 true true 0 ( 25)]
] -46.7 MCshow
1.000 UL
LTb
LCb setrgbcolor
6947 448 M
0 63 V
0 4360 R
0 -63 V
stroke
6947 308 M
[ [(Helvetica) 140.0 0.0 true true 0 ( 30)]
] -46.7 MCshow
1.000 UL
LTb
LCb setrgbcolor
1.000 UL
LTB
LCb setrgbcolor
938 4871 N
938 448 L
6009 0 V
0 4423 V
-6009 0 V
Z stroke
1.000 UP
1.000 UL
LTb
LCb setrgbcolor
LCb setrgbcolor
112 2659 M
currentpoint gsave translate -270 rotate 0 0 moveto
[ [(Helvetica) 140.0 0.0 true true 0 (intensity \(arb. units\))]
] -46.7 MCshow
grestore
LTb
LCb setrgbcolor
3942 98 M
[ [(Helvetica) 140.0 0.0 true true 0 (photoelectoron energy [eV])]
] -46.7 MCshow
LTb
% Begin plot #1
1.000 UL
LTb
0.58 0.00 0.83 C LCb setrgbcolor
6296 4738 M
[ [(Helvetica) 140.0 0.0 true true 0 (intensity of IR is 6.5*10)]
[(Helvetica) 112.0 70.0 true true 0 (11)]
[(Helvetica) 140.0 0.0 true true 0 ([W/cm)]
[(Helvetica) 112.0 70.0 true true 0 (2)]
[(Helvetica) 140.0 0.0 true true 0 (])]
] -60.7 MRshow
1.000 UL
LTb
0.58 0.00 0.83 C 6380 4738 M
399 0 V
6546 1391 M
-2 -19 V
-2 -451 V
-2 299 V
-2 202 V
-2 -140 V
-2 -473 V
-2 533 V
-2 71 V
-2 -291 V
-2 -49 V
-2 334 V
-2 -45 V
-2 -497 V
-2 393 V
-2 170 V
-2 -169 V
-2 -391 V
-2 497 V
-2 45 V
-2 -332 V
-2 50 V
-2 292 V
-2 -71 V
-2 -529 V
-2 472 V
-2 141 V
-2 -201 V
-2 -296 V
-2 450 V
-2 20 V
-2 -377 V
-2 148 V
-2 254 V
-2 -97 V
-2 -534 V
-2 523 V
-2 112 V
-2 -234 V
-2 -197 V
-2 401 V
-2 -6 V
-2 -423 V
-2 246 V
-2 218 V
-2 -124 V
-2 -499 V
-2 534 V
-2 85 V
-2 -270 V
-2 -99 V
-2 354 V
-2 -31 V
-2 -469 V
-2 341 V
-2 186 V
-2 -153 V
-2 -431 V
-2 512 V
-2 59 V
-2 -309 V
-2 -2 V
-2 312 V
-2 -57 V
-2 -508 V
-2 427 V
-2 155 V
-2 -183 V
-2 -342 V
-2 470 V
-2 33 V
-2 -350 V
-2 95 V
-2 272 V
-2 -83 V
-2 -526 V
-2 492 V
-2 126 V
-2 -215 V
-2 -246 V
-2 422 V
-2 8 V
-2 -395 V
-2 192 V
-2 236 V
-2 -110 V
-2 -512 V
-2 523 V
-2 99 V
-2 -250 V
-2 -148 V
-2 375 V
-2 -17 V
-2 -440 V
-2 287 V
-2 201 V
-2 -137 V
-2 -461 V
-2 518 V
-2 72 V
-2 -286 V
-2 -52 V
-2 331 V
stroke 6342 1452 M
-2 -43 V
-2 -482 V
-2 377 V
-2 170 V
-2 -166 V
-2 -383 V
-2 486 V
-2 46 V
-2 -326 V
-2 45 V
-2 290 V
-2 -69 V
-2 -511 V
-2 452 V
-2 141 V
-2 -197 V
-2 -291 V
-2 441 V
-2 21 V
-2 -368 V
-2 140 V
-2 253 V
-2 -96 V
-2 -513 V
-2 501 V
-2 112 V
-2 -230 V
-2 -195 V
-2 395 V
-2 -5 V
-2 -412 V
-2 235 V
-2 217 V
-2 -122 V
-2 -480 V
-2 513 V
-2 85 V
-2 -265 V
-2 -98 V
-2 349 V
-2 -31 V
-2 -456 V
-2 330 V
-2 184 V
-2 -154 V
-2 -383 V
-2 433 V
-2 96 V
-2 -298 V
-2 -20 V
-2 314 V
-2 -53 V
-2 -488 V
-2 402 V
-2 157 V
-2 -179 V
-2 -336 V
-2 459 V
-2 35 V
-2 -341 V
-2 86 V
-2 271 V
-2 -80 V
-2 -504 V
-2 466 V
-2 128 V
-2 -211 V
-2 -244 V
-2 415 V
-2 10 V
-2 -383 V
-2 179 V
-2 235 V
-2 -107 V
-2 -489 V
-2 497 V
-2 100 V
-2 -244 V
-2 -149 V
-2 370 V
-2 -16 V
-2 -424 V
-2 270 V
-2 202 V
-2 -135 V
-2 -442 V
-2 496 V
-2 73 V
-2 -279 V
-2 -56 V
-2 327 V
-2 -41 V
-2 -461 V
-2 355 V
-2 170 V
-2 -163 V
-2 -369 V
-2 468 V
-2 48 V
-2 -317 V
-2 37 V
-2 288 V
-2 -67 V
-2 -485 V
stroke 6134 965 M
-2 425 V
-2 141 V
-2 -193 V
-2 -284 V
-2 430 V
-2 22 V
-2 -356 V
-2 129 V
-2 250 V
-2 -92 V
-2 -486 V
-2 471 V
-2 113 V
-2 -225 V
-2 -192 V
-2 386 V
-2 -3 V
-2 -396 V
-2 219 V
-2 216 V
-2 -119 V
-2 -455 V
-2 485 V
-2 86 V
-2 -258 V
-2 -101 V
-2 344 V
-2 -28 V
-2 -433 V
-2 304 V
-2 184 V
-2 -147 V
-2 -396 V
-2 471 V
-2 61 V
-2 -294 V
-2 -10 V
-2 304 V
-2 -53 V
-2 -462 V
-2 379 V
-2 154 V
-2 -175 V
-2 -319 V
-2 439 V
-2 35 V
-2 -330 V
-2 80 V
-2 266 V
-2 -79 V
-2 -472 V
-2 434 V
-2 127 V
-2 -206 V
-2 -233 V
-2 400 V
-2 10 V
-2 -368 V
-2 168 V
-2 231 V
-2 -104 V
-2 -457 V
-2 463 V
-2 100 V
-2 -238 V
-2 -145 V
-2 359 V
-2 -14 V
-2 -404 V
-2 251 V
-2 199 V
-2 -130 V
-2 -414 V
-2 464 V
-2 74 V
-2 -270 V
-2 -57 V
-2 319 V
-2 -39 V
-2 -433 V
-2 326 V
-2 169 V
-2 -157 V
-2 -349 V
-2 443 V
-2 49 V
-2 -302 V
-2 26 V
-2 283 V
-2 -61 V
-2 -446 V
-2 380 V
-2 144 V
-2 -176 V
-3 -280 V
-2 407 V
-2 111 V
-2 -313 V
-2 41 V
-2 205 V
-2 -103 V
-2 -444 V
-2 446 V
-2 104 V
stroke 5925 1591 M
-2 -225 V
-2 -165 V
-2 363 V
-2 -6 V
-2 -383 V
-2 217 V
-2 208 V
-2 -120 V
-2 -416 V
-2 450 V
-2 82 V
-2 -254 V
-2 -86 V
-2 327 V
-2 -30 V
-2 -411 V
-2 290 V
-2 178 V
-2 -146 V
-2 -360 V
-2 437 V
-2 57 V
-2 -286 V
-2 -2 V
-2 290 V
-2 -54 V
-2 -431 V
-2 355 V
-2 148 V
-2 -174 V
-2 -287 V
-2 409 V
-2 32 V
-2 -320 V
-2 83 V
-2 254 V
-2 -79 V
-2 -433 V
-2 401 V
-2 121 V
-2 -203 V
-2 -207 V
-2 374 V
-2 7 V
-2 -353 V
-2 165 V
-2 221 V
-2 -105 V
-2 -412 V
-2 424 V
-2 94 V
-2 -234 V
-2 -122 V
-2 335 V
-2 -17 V
-2 -383 V
-2 243 V
-2 188 V
-2 -131 V
-2 -366 V
-2 422 V
-2 68 V
-2 -266 V
-2 -36 V
-2 297 V
-2 -42 V
-2 -405 V
-2 311 V
-2 158 V
-2 -159 V
-2 -300 V
-2 402 V
-2 41 V
-2 -298 V
-2 48 V
-2 262 V
-2 -69 V
-2 -411 V
-2 364 V
-2 129 V
-2 -189 V
-2 -223 V
-2 371 V
-2 16 V
-2 -330 V
-2 131 V
-2 226 V
-2 -95 V
-2 -395 V
-2 394 V
-2 101 V
-2 -220 V
-2 -138 V
-2 334 V
-2 -11 V
-2 -359 V
-2 211 V
-2 193 V
-2 -123 V
-2 -354 V
-2 400 V
-2 72 V
-2 -252 V
-2 -50 V
stroke 5717 1369 M
-2 295 V
-2 -37 V
-2 -381 V
-2 284 V
-2 159 V
-2 -154 V
-2 -286 V
-2 383 V
-2 42 V
-2 -287 V
-2 45 V
-2 255 V
-2 -68 V
-2 -386 V
-2 344 V
-2 124 V
-2 -188 V
-2 -195 V
-2 348 V
-2 10 V
-2 -326 V
-2 151 V
-2 210 V
-2 -105 V
-2 -354 V
-2 380 V
-2 83 V
-2 -237 V
-2 -63 V
-2 296 V
-2 -35 V
-2 -370 V
-2 292 V
-2 150 V
-2 -169 V
-2 -213 V
-2 365 V
-2 13 V
-2 -358 V
-2 266 V
-2 202 V
-2 -158 V
-2 -170 V
-2 870 V
-2 48 V
-2 -526 V
-2 -150 V
-2 -932 V
-2 839 V
-2 -33 V
-2 -538 V
-2 477 V
-2 111 V
-2 -256 V
-2 -54 V
-2 305 V
-2 -54 V
-2 -400 V
-2 348 V
-2 128 V
-2 -193 V
-2 -179 V
-2 342 V
-2 1 V
-2 -333 V
-2 179 V
-2 194 V
-2 -116 V
-2 -325 V
-2 368 V
-2 71 V
-2 -242 V
-2 -39 V
-2 277 V
-2 -40 V
-2 -349 V
-2 264 V
-2 148 V
-2 -151 V
-2 -244 V
-2 344 V
-2 37 V
-2 -273 V
-2 54 V
-2 234 V
-2 -69 V
-2 -339 V
-2 305 V
-2 115 V
-2 -180 V
-2 -166 V
-2 313 V
-2 9 V
-2 -293 V
-2 125 V
-2 199 V
-2 -94 V
-2 -309 V
-2 319 V
-2 88 V
-2 -204 V
-2 -96 V
-2 282 V
-2 -14 V
stroke 5509 1729 M
-2 -304 V
-2 180 V
-2 169 V
-2 -116 V
-2 -267 V
-2 316 V
-2 63 V
-2 -223 V
-2 -32 V
-2 252 V
-2 -36 V
-2 -303 V
-2 219 V
-2 143 V
-2 -136 V
-2 -218 V
-2 302 V
-2 42 V
-2 -238 V
-2 23 V
-2 224 V
-2 -54 V
-2 -291 V
-2 241 V
-2 121 V
-2 -152 V
-2 -170 V
-2 282 V
-2 24 V
-2 -245 V
-2 67 V
-2 199 V
-2 -70 V
-2 -268 V
-2 248 V
-2 101 V
-2 -163 V
-2 -125 V
-2 260 V
-2 9 V
-2 -244 V
-2 96 V
-2 178 V
-2 -81 V
-2 -240 V
-2 244 V
-2 85 V
-2 -167 V
-2 -90 V
-2 238 V
-2 -1 V
-2 -233 V
-2 108 V
-2 162 V
-2 -83 V
-2 -214 V
-2 229 V
-2 78 V
-2 -162 V
-2 -74 V
-2 222 V
-2 -1 V
-2 -215 V
-2 98 V
-2 157 V
-2 -75 V
-2 -198 V
-2 206 V
-2 85 V
-2 -141 V
-2 -92 V
-2 219 V
-2 18 V
-2 -193 V
-2 53 V
-2 179 V
-2 -43 V
-2 -213 V
-2 180 V
-2 129 V
-2 -102 V
-2 -181 V
-2 265 V
-2 81 V
-2 -173 V
-2 -69 V
-2 302 V
-2 34 V
-2 -283 V
-2 174 V
-2 299 V
-2 2 V
-2 -491 V
-2 609 V
-2 759 V
-2 146 V
-2 -928 V
-2 201 V
-2 -231 V
-2 -671 V
-2 392 V
-2 40 V
-2 -312 V
-2 -51 V
stroke 5301 1819 M
-2 215 V
-2 -136 V
-2 -356 V
-2 372 V
-2 22 V
-2 -381 V
-2 158 V
-2 227 V
-2 -138 V
-2 -629 V
-2 678 V
-3 69 V
-2 -346 V
-2 -8 V
-2 352 V
-2 -65 V
-2 -881 V
-2 806 V
-2 159 V
-2 -214 V
-2 -426 V
-2 592 V
-2 23 V
-2 -440 V
-2 193 V
-2 277 V
-2 -103 V
-2 -810 V
-2 807 V
-2 116 V
-2 -253 V
-2 -214 V
-2 443 V
-2 -9 V
-2 -481 V
-2 309 V
-2 223 V
-2 -133 V
-2 -562 V
-2 614 V
-2 82 V
-2 -288 V
-2 -72 V
-2 356 V
-2 -38 V
-2 -501 V
-2 392 V
-2 179 V
-2 -163 V
-2 -400 V
-2 505 V
-2 50 V
-2 -323 V
-2 45 V
-2 293 V
-2 -66 V
-2 -499 V
-2 448 V
-2 141 V
-2 -197 V
-2 -267 V
-2 427 V
-2 20 V
-2 -363 V
-2 155 V
-2 243 V
-2 -98 V
-2 -466 V
-2 473 V
-2 105 V
-2 -233 V
-2 -146 V
-2 364 V
-2 -11 V
-2 -404 V
-2 261 V
-2 200 V
-2 -132 V
-2 -399 V
-2 465 V
-2 71 V
-2 -276 V
-2 -27 V
-2 311 V
-2 -45 V
-2 -441 V
-2 363 V
-2 159 V
-2 -170 V
-2 -303 V
-2 433 V
-2 37 V
-2 -329 V
-2 99 V
-2 263 V
-2 -81 V
-2 -464 V
-2 452 V
-2 122 V
-2 -216 V
-2 -186 V
-2 389 V
-2 1 V
-2 -396 V
stroke 5092 1793 M
-2 240 V
-2 218 V
-2 -121 V
-2 -445 V
-2 506 V
-2 83 V
-2 -274 V
-2 -46 V
-2 339 V
-2 -37 V
-2 -487 V
-2 410 V
-2 175 V
-2 -170 V
-2 -356 V
-2 504 V
-2 45 V
-2 -356 V
-2 128 V
-2 288 V
-2 -77 V
-2 -613 V
-2 627 V
-2 135 V
-2 -229 V
-2 -196 V
-2 458 V
-2 11 V
-2 -489 V
-2 372 V
-2 248 V
-2 -115 V
-2 -658 V
-2 802 V
-2 117 V
-2 -283 V
-2 28 V
-2 440 V
-2 42 V
-2 -548 V
-2 631 V
-2 795 V
-2 134 V
-2 -1078 V
-2 357 V
-2 -183 V
-2 -690 V
-2 291 V
-2 138 V
-2 -224 V
-2 -697 V
-2 660 V
-2 10 V
-2 -391 V
-2 6 V
-2 267 V
-2 -116 V
-2 -549 V
-2 459 V
-2 81 V
-2 -260 V
-2 -130 V
-2 292 V
-2 -59 V
-2 -361 V
-2 249 V
-2 103 V
-2 -194 V
-2 -117 V
-2 238 V
-2 -45 V
-2 -266 V
-2 191 V
-2 86 V
-2 -185 V
-2 -58 V
-2 208 V
-2 -58 V
-2 -265 V
-2 234 V
-2 80 V
-2 -215 V
-2 -42 V
-2 246 V
-2 -58 V
-2 -366 V
-2 325 V
-2 114 V
-2 -221 V
-2 -153 V
-2 355 V
-2 -21 V
-2 -464 V
-2 338 V
-2 187 V
-2 -167 V
-2 -460 V
-2 574 V
-2 45 V
-2 -383 V
-2 107 V
-2 303 V
-2 -88 V
-2 -953 V
stroke 4884 1096 M
-2 933 V
-2 132 V
-2 -249 V
-2 -274 V
-2 502 V
-2 -1 V
-2 -537 V
-2 354 V
-2 241 V
-2 -133 V
-2 -992 V
-2 1048 V
-2 91 V
-2 -308 V
-2 -91 V
-2 403 V
-2 -34 V
-2 -648 V
-2 534 V
-2 196 V
-2 -167 V
-2 -583 V
-2 697 V
-2 60 V
-2 -351 V
-2 38 V
-2 338 V
-2 -60 V
-2 -694 V
-2 633 V
-2 164 V
-2 -194 V
-2 -407 V
-2 568 V
-2 38 V
-2 -389 V
-2 134 V
-2 297 V
-2 -80 V
-2 -705 V
-2 685 V
-2 141 V
-2 -218 V
-2 -297 V
-2 500 V
-2 20 V
-2 -428 V
-2 220 V
-2 268 V
-2 -98 V
-2 -712 V
-2 731 V
-2 123 V
-2 -243 V
-2 -213 V
-2 460 V
-2 4 V
-2 -476 V
-2 310 V
-2 247 V
-2 -115 V
-2 -721 V
-2 780 V
-2 108 V
-2 -268 V
-2 -136 V
-2 431 V
-2 -7 V
-2 -542 V
-2 419 V
-2 231 V
-2 -129 V
-2 -709 V
-2 814 V
-2 100 V
-2 -294 V
-2 -52 V
-2 412 V
-2 -13 V
-2 -626 V
-2 561 V
-2 229 V
-2 -132 V
-2 -644 V
-2 825 V
-2 114 V
-2 -287 V
-2 43 V
-2 447 V
-2 52 V
-2 -510 V
-2 594 V
-2 801 V
-2 123 V
-2 -1338 V
-2 619 V
-2 -133 V
-2 -549 V
-2 61 V
-2 220 V
-2 -158 V
-2 -1118 V
-2 981 V
-2 89 V
stroke 4676 3197 M
-2 -276 V
-2 -364 V
-2 491 V
-2 -22 V
-2 -495 V
-2 215 V
-2 234 V
-2 -137 V
-2 -806 V
-2 770 V
-2 88 V
-2 -280 V
-2 -209 V
-2 409 V
-2 -30 V
-2 -495 V
-2 296 V
-2 202 V
-2 -149 V
-2 -529 V
-2 553 V
-2 65 V
-2 -291 V
-2 -77 V
-2 324 V
-2 -49 V
-2 -447 V
-2 319 V
-2 159 V
-2 -164 V
-2 -324 V
-2 399 V
-3 37 V
-2 -288 V
-2 26 V
-2 245 V
-2 -70 V
-2 -345 V
-2 284 V
-2 113 V
-2 -173 V
-2 -167 V
-2 283 V
-2 6 V
-2 -255 V
-2 90 V
-2 172 V
-2 -89 V
-2 -221 V
-2 222 V
-2 66 V
-2 -168 V
-2 -47 V
-2 188 V
-2 -26 V
-2 -188 V
-2 114 V
-2 102 V
-2 -101 V
-2 -99 V
-2 155 V
-2 16 V
-2 -137 V
-2 35 V
-2 106 V
-2 -56 V
-2 -95 V
-2 106 V
-2 33 V
-2 -98 V
-2 8 V
-2 89 V
-2 -37 V
-2 -75 V
-2 82 V
-2 30 V
-2 -82 V
-2 11 V
-2 80 V
-2 -38 V
-2 -69 V
-2 88 V
-2 28 V
-2 -93 V
-2 18 V
-2 96 V
-2 -44 V
-2 -94 V
-2 114 V
-2 45 V
-2 -115 V
-2 -3 V
-2 138 V
-2 -32 V
-2 -152 V
-2 135 V
-2 88 V
-2 -120 V
-2 -78 V
-2 199 V
-2 7 V
-2 -206 V
-2 108 V
-2 156 V
stroke 4467 2635 M
-2 -91 V
-2 -208 V
-2 264 V
-2 69 V
-2 -206 V
-2 -16 V
-2 252 V
-2 -32 V
-2 -320 V
-2 268 V
-2 153 V
-2 -150 V
-2 -242 V
-2 385 V
-2 44 V
-2 -307 V
-2 107 V
-2 269 V
-2 -68 V
-2 -485 V
-2 500 V
-2 139 V
-2 -208 V
-2 -208 V
-2 454 V
-2 25 V
-2 -434 V
-2 301 V
-2 268 V
-2 -92 V
-2 -722 V
-2 840 V
-2 142 V
-2 -237 V
-2 -77 V
-2 498 V
-2 71 V
-2 -440 V
-2 507 V
-2 782 V
-2 104 V
-2 -2152 V
-2 1432 V
-2 -97 V
-2 -487 V
-2 -58 V
-2 259 V
-2 -136 V
-2 -836 V
-2 662 V
-2 106 V
-2 -252 V
-2 -399 V
-2 490 V
-2 -12 V
-2 -433 V
-2 142 V
-2 233 V
-2 -125 V
-2 -551 V
-2 501 V
-2 85 V
-2 -252 V
-2 -171 V
-2 339 V
-2 -30 V
-2 -379 V
-2 202 V
-2 171 V
-2 -138 V
-2 -309 V
-2 331 V
-2 48 V
-2 -238 V
-2 -30 V
-2 225 V
-2 -54 V
-2 -269 V
-2 184 V
-2 107 V
-2 -141 V
-2 -138 V
-2 208 V
-2 9 V
-2 -189 V
-2 46 V
-2 130 V
-2 -72 V
-2 -142 V
-2 134 V
-2 43 V
-2 -121 V
-2 -20 V
-2 112 V
-2 -31 V
-2 -106 V
-2 71 V
-2 46 V
-2 -78 V
-2 -25 V
-2 78 V
-2 -20 V
-2 -72 V
-2 52 V
stroke 4259 2417 M
-2 31 V
-2 -67 V
-2 -4 V
-2 65 V
-2 -33 V
-2 -62 V
-2 69 V
-2 23 V
-2 -86 V
-2 10 V
-2 86 V
-2 -44 V
-2 -94 V
-2 102 V
-2 43 V
-2 -113 V
-2 -15 V
-2 133 V
-2 -28 V
-2 -157 V
-2 118 V
-2 92 V
-2 -114 V
-2 -102 V
-2 195 V
-2 16 V
-2 -201 V
-2 69 V
-2 166 V
-2 -77 V
-2 -229 V
-2 242 V
-2 83 V
-2 -184 V
-2 -80 V
-2 261 V
-2 -12 V
-2 -301 V
-2 190 V
-2 173 V
-2 -121 V
-2 -298 V
-2 367 V
-2 68 V
-2 -256 V
-2 -21 V
-2 295 V
-2 -40 V
-2 -421 V
-2 345 V
-2 167 V
-2 -162 V
-2 -340 V
-2 468 V
-2 51 V
-2 -329 V
-2 71 V
-2 299 V
-2 -63 V
-2 -578 V
-2 546 V
-2 154 V
-2 -198 V
-2 -329 V
-2 518 V
-2 35 V
-2 -402 V
-2 184 V
-2 290 V
-2 -82 V
-2 -800 V
-2 819 V
-2 144 V
-2 -225 V
-2 -264 V
-2 521 V
-2 28 V
-2 -464 V
-2 305 V
-2 287 V
-2 -83 V
-2 -1130 V
-2 1224 V
-2 158 V
-2 -212 V
-2 -176 V
-2 556 V
-2 94 V
-2 -342 V
-2 299 V
-2 914 V
-2 81 V
-2 -2663 V
-2 1911 V
-2 -83 V
-2 -446 V
-2 -168 V
-2 312 V
-2 -109 V
-2 -740 V
-2 504 V
-2 148 V
-2 -213 V
-2 -726 V
stroke 4051 2260 M
-2 748 V
-2 28 V
-2 -381 V
-2 -36 V
-2 331 V
-2 -83 V
-2 -767 V
-2 621 V
-2 153 V
-2 -209 V
-2 -572 V
-2 655 V
-2 27 V
-2 -397 V
-2 45 V
-2 310 V
-2 -89 V
-2 -831 V
-2 731 V
-2 141 V
-2 -222 V
-2 -460 V
-2 585 V
-2 17 V
-2 -427 V
-2 124 V
-2 285 V
-2 -101 V
-2 -942 V
-2 880 V
-2 126 V
-2 -242 V
-2 -364 V
-2 530 V
-2 3 V
-2 -472 V
-2 212 V
-2 261 V
-2 -118 V
-2 -1172 V
-2 1148 V
-2 108 V
-2 -269 V
-2 -267 V
-2 478 V
-2 -15 V
-2 -539 V
-2 325 V
-2 233 V
-2 -140 V
-2 -1190 V
-2 1209 V
-2 86 V
-2 -305 V
-3 -153 V
-2 419 V
-2 -37 V
-2 -632 V
-2 470 V
-2 200 V
-2 -168 V
-2 -717 V
-2 787 V
-2 58 V
-2 -348 V
-2 -15 V
-2 345 V
-2 -65 V
-2 -670 V
-2 573 V
-2 156 V
-2 -201 V
-2 -382 V
-2 513 V
-2 22 V
-2 -380 V
-2 133 V
-2 254 V
-2 -101 V
-2 -467 V
-2 454 V
-2 97 V
-2 -231 V
-2 -114 V
-2 312 V
-2 -27 V
-2 -327 V
-2 219 V
-2 146 V
-2 -140 V
-2 -179 V
-2 267 V
-2 18 V
-2 -217 V
-2 88 V
-2 147 V
-2 -93 V
-2 -133 V
-2 188 V
-2 22 V
-2 -160 V
-2 75 V
-2 116 V
-2 -92 V
stroke 3842 2080 M
-2 -80 V
-2 171 V
-2 0 V
-2 -168 V
-2 128 V
-2 109 V
-2 -125 V
-2 -78 V
-2 225 V
-2 -3 V
-2 -246 V
-2 192 V
-2 151 V
-2 -136 V
-2 -188 V
-2 342 V
-2 36 V
-2 -316 V
-2 175 V
-2 241 V
-2 -94 V
-2 -446 V
-2 537 V
-2 109 V
-2 -266 V
-2 -25 V
-2 389 V
-2 -11 V
-2 -609 V
-2 604 V
-2 223 V
-2 -136 V
-2 -426 V
-2 715 V
-2 141 V
-2 -238 V
-2 38 V
-2 1093 V
-2 61 V
-2 -2091 V
-2 1330 V
-2 -71 V
-2 -429 V
-2 -187 V
-2 324 V
-2 -104 V
-2 -719 V
-2 500 V
-2 142 V
-2 -219 V
-2 -554 V
-2 605 V
-2 14 V
-2 -406 V
-2 67 V
-2 277 V
-2 -107 V
-2 -696 V
-2 620 V
-2 110 V
-2 -248 V
-2 -272 V
-2 434 V
-2 -16 V
-2 -456 V
-2 240 V
-2 213 V
-2 -140 V
-2 -541 V
-2 555 V
-2 70 V
-2 -293 V
-2 -84 V
-2 334 V
-2 -51 V
-2 -495 V
-2 369 V
-2 161 V
-2 -179 V
-2 -374 V
-2 466 V
-2 32 V
-2 -342 V
-2 65 V
-2 266 V
-2 -86 V
-2 -500 V
-2 448 V
-2 118 V
-2 -220 V
-2 -230 V
-2 393 V
-2 -3 V
-2 -394 V
-2 194 V
-2 216 V
-2 -123 V
-2 -462 V
-2 477 V
-2 81 V
-2 -266 V
-2 -102 V
-2 336 V
-2 -37 V
stroke 3634 2129 M
-2 -447 V
-2 315 V
-2 174 V
-2 -160 V
-2 -393 V
-2 470 V
-2 48 V
-2 -317 V
-2 18 V
-2 289 V
-2 -69 V
-2 -505 V
-2 432 V
-2 139 V
-2 -200 V
-2 -305 V
-2 444 V
-2 17 V
-2 -380 V
-2 140 V
-2 252 V
-2 -102 V
-2 -565 V
-2 546 V
-2 109 V
-2 -246 V
-2 -208 V
-2 412 V
-2 -12 V
-2 -466 V
-2 280 V
-2 218 V
-2 -136 V
-2 -620 V
-2 656 V
-2 80 V
-2 -301 V
-2 -101 V
-2 379 V
-2 -42 V
-2 -610 V
-2 476 V
-2 188 V
-2 -175 V
-2 -617 V
-2 711 V
-2 51 V
-2 -371 V
-2 32 V
-2 336 V
-2 -73 V
-2 -919 V
-2 844 V
-2 152 V
-2 -220 V
-2 -412 V
-2 575 V
-2 17 V
-2 -446 V
-2 210 V
-2 259 V
-2 -115 V
-2 -572 V
-2 592 V
-2 89 V
-2 -266 V
-2 -39 V
-2 302 V
-2 -52 V
-2 -324 V
-2 306 V
-2 103 V
-2 -193 V
-2 11 V
-2 227 V
-2 -64 V
-2 -207 V
-2 311 V
-2 70 V
-2 -266 V
-2 187 V
-2 257 V
-2 -75 V
-2 -411 V
-2 639 V
-2 173 V
-2 -168 V
-2 -229 V
-2 1329 V
-2 46 V
-2 -1621 V
-2 842 V
-2 -40 V
-2 -361 V
-2 -321 V
-2 388 V
-2 -53 V
-2 -452 V
-2 157 V
-2 204 V
-2 -128 V
-2 -471 V
-2 404 V
-2 90 V
stroke 3426 2279 M
-2 -217 V
-2 -211 V
-2 330 V
-2 0 V
-2 -308 V
-2 79 V
-2 207 V
-2 -85 V
-2 -332 V
-2 274 V
-2 106 V
-2 -173 V
-2 -187 V
-2 288 V
-2 16 V
-2 -257 V
-2 45 V
-2 203 V
-2 -68 V
-2 -291 V
-2 233 V
-2 111 V
-2 -157 V
-2 -178 V
-2 272 V
-2 22 V
-2 -242 V
-2 38 V
-2 202 V
-2 -65 V
-2 -281 V
-2 229 V
-2 109 V
-2 -156 V
-2 -168 V
-2 269 V
-2 20 V
-2 -246 V
-2 53 V
-2 197 V
-2 -70 V
-2 -281 V
-2 243 V
-2 103 V
-2 -166 V
-2 -151 V
-2 270 V
-2 11 V
-2 -259 V
-2 83 V
-2 190 V
-2 -83 V
-2 -283 V
-2 266 V
-2 92 V
-2 -182 V
-2 -124 V
-2 270 V
-2 -3 V
-2 -279 V
-2 125 V
-2 178 V
-2 -100 V
-2 -281 V
-2 293 V
-2 77 V
-2 -205 V
-2 -85 V
-2 265 V
-2 -20 V
-2 -303 V
-2 178 V
-2 162 V
-2 -122 V
-2 -270 V
-3 316 V
-2 59 V
-2 -235 V
-2 -30 V
-2 254 V
-2 -43 V
-2 -331 V
-2 242 V
-2 142 V
-2 -151 V
-2 -243 V
-2 333 V
-2 36 V
-2 -274 V
-2 42 V
-2 236 V
-2 -70 V
-2 -360 V
-2 315 V
-2 117 V
-2 -187 V
-2 -194 V
-2 337 V
-2 8 V
-2 -327 V
-2 140 V
-2 211 V
-2 -106 V
-2 -384 V
stroke 3217 1352 M
-2 394 V
-2 87 V
-2 -241 V
-2 -104 V
-2 323 V
-2 -30 V
-2 -417 V
-2 292 V
-2 174 V
-2 -160 V
-2 -372 V
-2 464 V
-2 42 V
-2 -344 V
-2 74 V
-2 279 V
-2 -91 V
-2 -644 V
-2 625 V
-2 111 V
-2 -278 V
-2 -154 V
-2 414 V
-2 -46 V
-2 -844 V
-2 772 V
-2 150 V
-2 -271 V
-2 -75 V
-2 380 V
-2 -84 V
-2 -269 V
-2 506 V
-2 63 V
-2 -381 V
-2 1266 V
-2 35 V
-2 -1326 V
-2 633 V
-2 -88 V
-2 -444 V
-2 135 V
-2 134 V
-2 -185 V
-2 -191 V
-2 254 V
-2 -26 V
-2 -269 V
-2 153 V
-2 113 V
-2 -151 V
-2 -132 V
-2 226 V
-2 -9 V
-2 -239 V
-2 121 V
-2 135 V
-2 -119 V
-2 -180 V
-2 237 V
-2 30 V
-2 -219 V
-2 40 V
-2 181 V
-2 -73 V
-2 -242 V
-2 225 V
-2 83 V
-2 -176 V
-2 -85 V
-2 233 V
-2 -16 V
-2 -257 V
-2 145 V
-2 146 V
-2 -117 V
-2 -211 V
-2 263 V
-2 46 V
-2 -218 V
-2 1 V
-2 213 V
-2 -52 V
-2 -275 V
-2 219 V
-2 115 V
-2 -154 V
-2 -162 V
-2 270 V
-2 16 V
-2 -252 V
-2 79 V
-2 190 V
-2 -83 V
-2 -275 V
-2 267 V
-2 87 V
-2 -187 V
-2 -102 V
-2 261 V
-2 -11 V
-2 -281 V
-2 151 V
-2 164 V
stroke 3009 1757 M
-2 -112 V
-2 -255 V
-2 293 V
-2 61 V
-2 -218 V
-2 -37 V
-2 244 V
-2 -37 V
-2 -301 V
-2 212 V
-2 140 V
-2 -140 V
-2 -220 V
-2 301 V
-2 38 V
-2 -249 V
-2 30 V
-2 223 V
-2 -63 V
-2 -310 V
-2 263 V
-2 115 V
-2 -168 V
-2 -172 V
-2 297 V
-2 13 V
-2 -277 V
-2 98 V
-2 199 V
-2 -88 V
-2 -305 V
-2 298 V
-2 92 V
-2 -197 V
-2 -115 V
-2 283 V
-2 -10 V
-2 -301 V
-2 160 V
-2 175 V
-2 -112 V
-2 -286 V
-2 319 V
-2 68 V
-2 -224 V
-2 -54 V
-2 264 V
-2 -33 V
-2 -320 V
-2 217 V
-2 152 V
-2 -138 V
-2 -252 V
-2 324 V
-2 46 V
-2 -250 V
-2 8 V
-2 241 V
-2 -55 V
-2 -330 V
-2 264 V
-2 129 V
-2 -161 V
-2 -210 V
-2 317 V
-2 26 V
-2 -273 V
-2 64 V
-2 218 V
-2 -75 V
-2 -326 V
-2 290 V
-2 109 V
-2 -179 V
-2 -170 V
-2 300 V
-2 11 V
-2 -280 V
-2 85 V
-2 200 V
-2 -78 V
-2 -306 V
-2 242 V
-2 116 V
-2 -104 V
-2 -85 V
-2 786 V
-2 116 V
-2 -1071 V
-2 510 V
-2 64 V
-2 -223 V
-2 -274 V
-2 376 V
-2 18 V
-2 -312 V
-2 62 V
-2 243 V
-2 -76 V
-2 -393 V
-2 340 V
-2 122 V
-2 -186 V
-2 -218 V
stroke 2801 1310 M
-2 352 V
-2 16 V
-2 -314 V
-2 107 V
-2 223 V
-2 -89 V
-2 -377 V
-2 359 V
-2 104 V
-2 -206 V
-2 -159 V
-2 330 V
-2 -4 V
-2 -337 V
-2 170 V
-2 199 V
-2 -112 V
-2 -356 V
-2 377 V
-2 82 V
-2 -233 V
-2 -92 V
-2 304 V
-2 -25 V
-2 -361 V
-2 234 V
-2 173 V
-2 -135 V
-2 -321 V
-2 382 V
-2 59 V
-2 -263 V
-2 -20 V
-2 277 V
-2 -49 V
-2 -381 V
-2 295 V
-2 148 V
-2 -162 V
-2 -270 V
-2 373 V
-2 36 V
-2 -294 V
-2 54 V
-2 248 V
-2 -72 V
-2 -390 V
-2 346 V
-2 122 V
-2 -189 V
-2 -209 V
-2 354 V
-2 12 V
-2 -325 V
-2 129 V
-2 220 V
-2 -97 V
-2 -384 V
-2 381 V
-2 98 V
-2 -219 V
-2 -139 V
-2 329 V
-2 -11 V
-2 -357 V
-2 203 V
-2 192 V
-2 -122 V
-2 -359 V
-2 398 V
-2 73 V
-2 -250 V
-2 -64 V
-2 300 V
-2 -35 V
-2 -384 V
-2 273 V
-2 165 V
-2 -149 V
-2 -314 V
-2 395 V
-2 49 V
-2 -282 V
-2 14 V
-2 269 V
-2 -59 V
-2 -404 V
-2 336 V
-2 138 V
-2 -177 V
-2 -254 V
-2 379 V
-2 25 V
-2 -317 V
-2 94 V
-2 239 V
-3 -84 V
-2 -409 V
-2 384 V
-2 112 V
-2 -207 V
-2 -184 V
-2 354 V
-2 1 V
stroke 2592 1590 M
-2 -353 V
-2 175 V
-2 210 V
-2 -111 V
-2 -395 V
-2 414 V
-2 86 V
-2 -240 V
-2 -105 V
-2 324 V
-2 -24 V
-2 -389 V
-2 256 V
-2 181 V
-2 -140 V
-2 -358 V
-2 423 V
-2 60 V
-2 -278 V
-2 -17 V
-2 291 V
-2 -51 V
-2 -429 V
-2 345 V
-2 150 V
-2 -175 V
-2 -297 V
-2 419 V
-2 29 V
-2 -347 V
-2 119 V
-2 258 V
-2 -78 V
-2 -161 V
-2 90 V
-2 122 V
-2 -118 V
-2 -273 V
-2 340 V
-2 36 V
-2 -295 V
-2 71 V
-2 237 V
-2 -82 V
-2 -391 V
-2 367 V
-2 110 V
-2 -207 V
-2 -172 V
-2 344 V
-2 -1 V
-2 -352 V
-2 181 V
-2 204 V
-2 -114 V
-2 -382 V
-2 407 V
-2 82 V
-2 -243 V
-2 -90 V
-2 315 V
-2 -28 V
-2 -388 V
-2 264 V
-2 175 V
-2 -143 V
-2 -342 V
-2 412 V
-2 57 V
-2 -279 V
-2 -8 V
-2 284 V
-2 -53 V
-2 -415 V
-2 335 V
-2 147 V
-2 -172 V
-2 -282 V
-2 397 V
-2 32 V
-2 -314 V
-2 75 V
-2 252 V
-2 -79 V
-2 -426 V
-2 389 V
-2 121 V
-2 -202 V
-2 -210 V
-2 371 V
-2 8 V
-2 -351 V
-2 158 V
-2 220 V
-2 -104 V
-2 -416 V
-2 423 V
-2 94 V
-2 -233 V
-2 -131 V
-2 339 V
-2 -17 V
-2 -386 V
-2 238 V
stroke 2384 1380 M
-2 191 V
-2 -131 V
-2 -381 V
-2 431 V
-2 70 V
-2 -267 V
-2 -49 V
-2 306 V
-2 -42 V
-2 -416 V
-2 313 V
-2 163 V
-2 -159 V
-2 -327 V
-2 421 V
-2 44 V
-2 -301 V
-2 34 V
-2 272 V
-2 -66 V
-2 -437 V
-2 378 V
-2 135 V
-2 -188 V
-2 -257 V
-2 396 V
-2 20 V
-2 -338 V
-2 118 V
-2 240 V
-2 -91 V
-2 -439 V
-2 422 V
-2 110 V
-2 -219 V
-2 -179 V
-2 364 V
-2 -4 V
-2 -375 V
-2 201 V
-2 209 V
-2 -117 V
-2 -416 V
-2 443 V
-2 83 V
-2 -251 V
-2 -96 V
-2 329 V
-2 -28 V
-2 -411 V
-2 282 V
-2 180 V
-2 -145 V
-2 -369 V
-2 440 V
-2 58 V
-2 -286 V
-2 -11 V
-2 294 V
-2 -53 V
-2 -438 V
-2 354 V
-2 151 V
-2 -173 V
-2 -304 V
-2 419 V
-2 34 V
-2 -322 V
-2 74 V
-2 260 V
-2 -78 V
-2 -451 V
-2 411 V
-2 124 V
-2 -204 V
-2 -225 V
-2 386 V
-2 9 V
-2 -359 V
-2 160 V
-2 226 V
-2 -106 V
-2 -425 V
-2 437 V
-2 55 V
-2 -158 V
-2 -191 V
-2 366 V
-2 -15 V
-2 -405 V
-2 246 V
-2 199 V
-2 -131 V
-2 -416 V
-2 462 V
-2 73 V
-2 -270 V
-2 -61 V
-2 319 V
-2 -39 V
-2 -436 V
-2 326 V
-2 168 V
-2 -158 V
stroke 2176 1372 M
-2 -355 V
-2 446 V
-2 48 V
-2 -306 V
-2 26 V
-2 283 V
-2 -64 V
-2 -460 V
-2 395 V
-2 140 V
-2 -188 V
-2 -279 V
-2 416 V
-2 23 V
-2 -344 V
-2 114 V
-2 249 V
-2 -90 V
-2 -465 V
-2 444 V
-2 113 V
-2 -219 V
-2 -197 V
-2 381 V
-2 -1 V
-2 -384 V
-2 201 V
-2 217 V
-2 -116 V
-2 -445 V
-2 467 V
-2 88 V
-2 -252 V
-2 -111 V
-2 343 V
-2 -26 V
-2 -422 V
-2 286 V
-2 186 V
-2 -144 V
-2 -397 V
-2 464 V
-2 63 V
-2 -288 V
-2 -23 V
-2 306 V
-2 -51 V
-2 -455 V
-2 364 V
-2 157 V
-2 -172 V
-2 -329 V
-2 441 V
-2 37 V
-2 -325 V
-2 66 V
-2 270 V
-2 -76 V
-2 -475 V
-2 429 V
-2 129 V
-2 -203 V
-2 -248 V
-2 406 V
-2 13 V
-2 -366 V
-2 156 V
-2 236 V
-2 -102 V
-2 -470 V
-2 468 V
-2 103 V
-2 -235 V
-2 -162 V
-2 368 V
-2 -12 V
-2 -407 V
-2 244 V
-2 204 V
-2 -129 V
-2 -436 V
-2 479 V
-2 76 V
-2 -269 V
-2 -73 V
-2 329 V
-2 -37 V
-2 -444 V
-2 328 V
-2 174 V
-2 -157 V
-2 -377 V
-2 464 V
-2 52 V
-2 -307 V
-2 16 V
-2 292 V
-2 -61 V
-2 -475 V
-2 403 V
-2 145 V
-2 -186 V
-2 -300 V
-2 433 V
stroke 1968 1438 M
-2 27 V
-2 -347 V
-2 107 V
-2 257 V
-2 -88 V
-2 -485 V
-2 458 V
-2 118 V
-2 -217 V
-2 -215 V
-2 395 V
-2 2 V
-2 -388 V
-2 197 V
-3 223 V
-2 -113 V
-2 -469 V
-2 486 V
-2 92 V
-2 -252 V
-2 -125 V
-2 355 V
-2 -23 V
-2 -430 V
-2 287 V
-2 191 V
-2 -141 V
-2 -422 V
-2 484 V
-2 67 V
-2 -287 V
-2 -30 V
-2 303 V
-2 -42 V
-2 -463 V
-2 365 V
-2 163 V
-2 -170 V
-2 -350 V
-2 457 V
-2 41 V
-2 -326 V
-2 56 V
-2 279 V
-2 -73 V
-2 -490 V
-2 437 V
-2 134 V
-2 -200 V
-2 -268 V
-2 421 V
-2 16 V
-2 -367 V
-2 148 V
-2 243 V
-2 -99 V
-2 -490 V
-2 483 V
-2 107 V
-2 -234 V
-2 -178 V
-2 381 V
-2 -9 V
-2 -410 V
-2 239 V
-2 211 V
-2 -127 V
-2 -459 V
-2 496 V
-2 81 V
-2 -268 V
-2 -87 V
-2 340 V
-2 -34 V
-2 -452 V
-2 328 V
-2 180 V
-2 -155 V
-2 -399 V
-2 481 V
-2 56 V
-2 -306 V
-2 5 V
-2 301 V
-2 -59 V
-2 -486 V
-2 408 V
-2 150 V
-2 -184 V
-2 -320 V
-2 448 V
-2 30 V
-2 -346 V
-2 97 V
-2 265 V
-2 -85 V
-2 -502 V
-2 469 V
-2 123 V
-2 -216 V
-2 -232 V
-2 408 V
-2 5 V
-2 -389 V
stroke 1759 1032 M
-2 190 V
-2 230 V
-2 -111 V
-2 -489 V
-2 500 V
-2 96 V
-2 -249 V
-2 -141 V
-2 366 V
-2 -19 V
-2 -433 V
-2 281 V
-2 198 V
-2 -138 V
-2 -444 V
-2 500 V
-2 70 V
-2 -286 V
-2 -47 V
-2 324 V
-2 -44 V
-2 -474 V
-2 369 V
-2 168 V
-2 -168 V
-2 -372 V
-2 475 V
-2 44 V
-2 -325 V
-2 45 V
-2 287 V
-2 -70 V
-2 -503 V
-2 444 V
-2 139 V
-2 -199 V
-2 -286 V
-2 435 V
-2 20 V
-2 -367 V
-2 139 V
-2 250 V
-2 -96 V
-2 -509 V
-2 495 V
-2 111 V
-2 -230 V
-2 -195 V
-2 392 V
-2 -5 V
-2 -412 V
-2 233 V
-2 217 V
-2 -123 V
-2 -481 V
-2 512 V
-2 84 V
-2 -265 V
-2 -102 V
-2 350 V
-2 -30 V
-2 -456 V
-2 324 V
-2 185 V
-2 -151 V
-2 -421 V
-2 498 V
-2 59 V
-2 -304 V
-2 -8 V
-2 310 V
-2 -56 V
-2 -494 V
-2 409 V
-2 155 V
-2 -181 V
-2 -340 V
-2 463 V
-2 34 V
-2 -345 V
-2 87 V
-2 271 V
-2 -82 V
-2 -518 V
-2 479 V
-2 128 V
-2 -213 V
-2 -251 V
-2 421 V
-2 9 V
-2 -389 V
-2 181 V
-2 237 V
-2 -108 V
-2 -508 V
-2 514 V
-2 100 V
-2 -247 V
-2 -157 V
-2 377 V
-2 -16 V
-2 -434 V
-2 275 V
-2 204 V
stroke 1551 1424 M
-2 -136 V
-2 -465 V
-2 516 V
-2 74 V
-2 -283 V
-2 -62 V
% End plot #1
stroke
2.000 UL
LTb
LCb setrgbcolor
1.000 UL
LTB
LCb setrgbcolor
938 4871 N
938 448 L
6009 0 V
0 4423 V
-6009 0 V
Z stroke
1.000 UP
1.000 UL
LTb
LCb setrgbcolor
stroke
grestore
end
showpage
%%Trailer
%%DocumentFonts: Helvetica
